{
  "data": [
    {
      "ma_nguyen_lieu": "NL3100",
      "ten_nguyen_lieu": "Ajiquick bún bò huế",
      "don_vi": null,
      "ma_nhom_nguyen_lieu": "N19",
      "ten_nhom_nguyen_lieu": "gia vị",
      "so_gian_hang": 0,
      "gia_goc": null,
      "gia_cuoi": null,
      "ngay_cap_nhat": null,
      "hinh_anh": null
    },
    {
      "ma_nguyen_lieu": "NL3051",
      "ten_nguyen_lieu": "Ajiquick bún riêu cua",
      "don_vi": null,
      "ma_nhom_nguyen_lieu": "N19",
      "ten_nhom_nguyen_lieu": "gia vị",
      "so_gian_hang": 0,
      "gia_goc": null,
      "gia_cuoi": null,
      "ngay_cap_nhat": null,
      "hinh_anh": null
    },
    {
      "ma_nguyen_lieu": "NL3061",
      "ten_nguyen_lieu": "Ajiquick cá kho riềng",
      "don_vi": null,
      "ma_nhom_nguyen_lieu": "N19",
      "ten_nhom_nguyen_lieu": "gia vị",
      "so_gian_hang": 0,
      "gia_goc": null,
      "gia_cuoi": null,
      "ngay_cap_nhat": null,
      "hinh_anh": null
    },
    {
      "ma_nguyen_lieu": "NL3103",
      "ten_nguyen_lieu": "Ajiquick lẩu bò",
      "don_vi": null,
      "ma_nhom_nguyen_lieu": "N19",
      "ten_nhom_nguyen_lieu": "gia vị",
      "so_gian_hang": 0,
      "gia_goc": null,
      "gia_cuoi": null,
      "ngay_cap_nhat": null,
      "hinh_anh": null
    },
    {
      "ma_nguyen_lieu": "NL3029",
      "ten_nguyen_lieu": "Ajiquick lẩu kim chi",
      "don_vi": null,
      "ma_nhom_nguyen_lieu": "N19",
      "ten_nhom_nguyen_lieu": "gia vị",
      "so_gian_hang": 0,
      "gia_goc": null,
      "gia_cuoi": null,
      "ngay_cap_nhat": null,
      "hinh_anh": null
    },
    {
      "ma_nguyen_lieu": "NL3018",
      "ten_nguyen_lieu": "Ajiquick lẩu thái",
      "don_vi": "gói 50g",
      "ma_nhom_nguyen_lieu": "N19",
      "ten_nhom_nguyen_lieu": "gia vị",
      "so_gian_hang": 2,
      "gia_goc": 9000,
      "gia_cuoi": 9000.0,
      "ngay_cap_nhat": "2025-11-17T02:49:00",
      "hinh_anh": "http://207.180.233.84/uploads/ingredients/NL3018.jpg"
    },
    {
      "ma_nguyen_lieu": "NL3197",
      "ten_nguyen_lieu": "Ajiquick lẩu thập cẩm",
      "don_vi": null,
      "ma_nhom_nguyen_lieu": "N19",
      "ten_nhom_nguyen_lieu": "gia vị",
      "so_gian_hang": 0,
      "gia_goc": null,
      "gia_cuoi": null,
      "ngay_cap_nhat": null,
      "hinh_anh": null
    },
    {
      "ma_nguyen_lieu": "NL3159",
      "ten_nguyen_lieu": "Ajiquick lẩu đuôi bò",
      "don_vi": null,
      "ma_nhom_nguyen_lieu": "N19",
      "ten_nhom_nguyen_lieu": "gia vị",
      "so_gian_hang": 0,
      "gia_goc": null,
      "gia_cuoi": null,
      "ngay_cap_nhat": null,
      "hinh_anh": null
    },
    {
      "ma_nguyen_lieu": "NL3060",
      "ten_nguyen_lieu": "Ajiquick phở bò",
      "don_vi": null,
      "ma_nhom_nguyen_lieu": "N19",
      "ten_nhom_nguyen_lieu": "gia vị",
      "so_gian_hang": 0,
      "gia_goc": null,
      "gia_cuoi": null,
      "ngay_cap_nhat": null,
      "hinh_anh": null
    },
    {
      "ma_nguyen_lieu": "NL3050",
      "ten_nguyen_lieu": "Ajiquick thịt kho",
      "don_vi": null,
      "ma_nhom_nguyen_lieu": "N19",
      "ten_nhom_nguyen_lieu": "gia vị",
      "so_gian_hang": 0,
      "gia_goc": null,
      "gia_cuoi": null,
      "ngay_cap_nhat": null,
      "hinh_anh": null
    },
    {
      "ma_nguyen_lieu": "NL3131",
      "ten_nguyen_lieu": "Ajiquick thịt kho tàu",
      "don_vi": null,
      "ma_nhom_nguyen_lieu": "N19",
      "ten_nhom_nguyen_lieu": "gia vị",
      "so_gian_hang": 0,
      "gia_goc": null,
      "gia_cuoi": null,
      "ngay_cap_nhat": null,
      "hinh_anh": null
    },
    {
      "ma_nguyen_lieu": "NL2824",
      "ten_nguyen_lieu": "Ba khía",
      "don_vi": null,
      "ma_nhom_nguyen_lieu": "N02",
      "ten_nhom_nguyen_lieu": "khác",
      "so_gian_hang": 0,
      "gia_goc": null,
      "gia_cuoi": null,
      "ngay_cap_nhat": null,
      "hinh_anh": null
    },
    {
      "ma_nguyen_lieu": "NL2943",
      "ten_nguyen_lieu": "Ba loại hạt hạt dưa",
      "don_vi": null,
      "ma_nhom_nguyen_lieu": "N02",
      "ten_nhom_nguyen_lieu": "khác",
      "so_gian_hang": 0,
      "gia_goc": null,
      "gia_cuoi": null,
      "ngay_cap_nhat": null,
      "hinh_anh": null
    },
    {
      "ma_nguyen_lieu": "NL872",
      "ten_nguyen_lieu": "Ba rọi heo",
      "don_vi": null,
      "ma_nhom_nguyen_lieu": "N09",
      "ten_nhom_nguyen_lieu": "thịt heo",
      "so_gian_hang": 0,
      "gia_goc": null,
      "gia_cuoi": null,
      "ngay_cap_nhat": null,
      "hinh_anh": null
    },
    {
      "ma_nguyen_lieu": "NL2806",
      "ten_nguyen_lieu": "Ba rọi muối",
      "don_vi": null,
      "ma_nhom_nguyen_lieu": "N02",
      "ten_nhom_nguyen_lieu": "khác",
      "so_gian_hang": 0,
      "gia_goc": null,
      "gia_cuoi": null,
      "ngay_cap_nhat": null,
      "hinh_anh": null
    },
    {
      "ma_nguyen_lieu": "NL2152",
      "ten_nguyen_lieu": "Ba rọi nguyên miếng",
      "don_vi": null,
      "ma_nhom_nguyen_lieu": "N02",
      "ten_nhom_nguyen_lieu": "khác",
      "so_gian_hang": 0,
      "gia_goc": null,
      "gia_cuoi": null,
      "ngay_cap_nhat": null,
      "hinh_anh": null
    },
    {
      "ma_nguyen_lieu": "NL1455",
      "ten_nguyen_lieu": "Ba rọi rút sườn",
      "don_vi": "lạng",
      "ma_nhom_nguyen_lieu": "N02",
      "ten_nhom_nguyen_lieu": "khác",
      "so_gian_hang": 1,
      "gia_goc": 1200,
      "gia_cuoi": 1200.0,
      "ngay_cap_nhat": "2025-11-08T09:25:00",
      "hinh_anh": "http://207.180.233.84/uploads/ingredients/NL1455.jpg"
    },
    {
      "ma_nguyen_lieu": "NL365",
      "ten_nguyen_lieu": "Bacon",
      "don_vi": null,
      "ma_nhom_nguyen_lieu": "N02",
      "ten_nhom_nguyen_lieu": "khác",
      "so_gian_hang": 0,
      "gia_goc": null,
      "gia_cuoi": null,
      "ngay_cap_nhat": null,
      "hinh_anh": null
    },
    {
      "ma_nguyen_lieu": "NL1279",
      "ten_nguyen_lieu": "Bacon hun khói",
      "don_vi": null,
      "ma_nhom_nguyen_lieu": "N02",
      "ten_nhom_nguyen_lieu": "khác",
      "so_gian_hang": 0,
      "gia_goc": null,
      "gia_cuoi": null,
      "ngay_cap_nhat": null,
      "hinh_anh": null
    },
    {
      "ma_nguyen_lieu": "NL30740",
      "ten_nguyen_lieu": "Bacon thịt heo xông khói",
      "don_vi": null,
      "ma_nhom_nguyen_lieu": "N19",
      "ten_nhom_nguyen_lieu": "gia vị",
      "so_gian_hang": 0,
      "gia_goc": null,
      "gia_cuoi": null,
      "ngay_cap_nhat": null,
      "hinh_anh": null
    },
    {
      "ma_nguyen_lieu": "NL3072",
      "ten_nguyen_lieu": "Baking sodo",
      "don_vi": null,
      "ma_nhom_nguyen_lieu": "N19",
      "ten_nhom_nguyen_lieu": "gia vị",
      "so_gian_hang": 0,
      "gia_goc": null,
      "gia_cuoi": null,
      "ngay_cap_nhat": null,
      "hinh_anh": null
    },
    {
      "ma_nguyen_lieu": "NL1828",
      "ten_nguyen_lieu": "Bao tử",
      "don_vi": null,
      "ma_nhom_nguyen_lieu": "N02",
      "ten_nhom_nguyen_lieu": "khác",
      "so_gian_hang": 0,
      "gia_goc": null,
      "gia_cuoi": null,
      "ngay_cap_nhat": null,
      "hinh_anh": null
    },
    {
      "ma_nguyen_lieu": "NL392",
      "ten_nguyen_lieu": "Bao tử heo",
      "don_vi": null,
      "ma_nhom_nguyen_lieu": "N09",
      "ten_nhom_nguyen_lieu": "thịt heo",
      "so_gian_hang": 0,
      "gia_goc": null,
      "gia_cuoi": null,
      "ngay_cap_nhat": null,
      "hinh_anh": null
    },
    {
      "ma_nguyen_lieu": "NL1302",
      "ten_nguyen_lieu": "Bao tử heo làm sạch",
      "don_vi": null,
      "ma_nhom_nguyen_lieu": "N09",
      "ten_nhom_nguyen_lieu": "thịt heo",
      "so_gian_hang": 0,
      "gia_goc": null,
      "gia_cuoi": null,
      "ngay_cap_nhat": null,
      "hinh_anh": null
    },
    {
      "ma_nguyen_lieu": "NL2243",
      "ten_nguyen_lieu": "Bao tử heo làm sạch khoảng",
      "don_vi": null,
      "ma_nhom_nguyen_lieu": "N09",
      "ten_nhom_nguyen_lieu": "thịt heo",
      "so_gian_hang": 0,
      "gia_goc": null,
      "gia_cuoi": null,
      "ngay_cap_nhat": null,
      "hinh_anh": null
    },
    {
      "ma_nguyen_lieu": "NL2038",
      "ten_nguyen_lieu": "Bia đen",
      "don_vi": null,
      "ma_nhom_nguyen_lieu": "N02",
      "ten_nhom_nguyen_lieu": "khác",
      "so_gian_hang": 0,
      "gia_goc": null,
      "gia_cuoi": null,
      "ngay_cap_nhat": null,
      "hinh_anh": null
    },
    {
      "ma_nguyen_lieu": "NL1231",
      "ten_nguyen_lieu": "Blendy Trà Sữa Royal",
      "don_vi": null,
      "ma_nhom_nguyen_lieu": "N02",
      "ten_nhom_nguyen_lieu": "khác",
      "so_gian_hang": 0,
      "gia_goc": null,
      "gia_cuoi": null,
      "ngay_cap_nhat": null,
      "hinh_anh": null
    },
    {
      "ma_nguyen_lieu": "NL2560",
      "ten_nguyen_lieu": "Blendy Trà Đào hương Cam Sả",
      "don_vi": null,
      "ma_nhom_nguyen_lieu": "N02",
      "ten_nhom_nguyen_lieu": "khác",
      "so_gian_hang": 0,
      "gia_goc": null,
      "gia_cuoi": null,
      "ngay_cap_nhat": null,
      "hinh_anh": null
    },
    {
      "ma_nguyen_lieu": "NL1892",
      "ten_nguyen_lieu": "Blendy Trà đào cam sả",
      "don_vi": null,
      "ma_nhom_nguyen_lieu": "N02",
      "ten_nhom_nguyen_lieu": "khác",
      "so_gian_hang": 0,
      "gia_goc": null,
      "gia_cuoi": null,
      "ngay_cap_nhat": null,
      "hinh_anh": null
    },
    {
      "ma_nguyen_lieu": "NL2673",
      "ten_nguyen_lieu": "Blendy trà sữa dâu",
      "don_vi": null,
      "ma_nhom_nguyen_lieu": "N02",
      "ten_nhom_nguyen_lieu": "khác",
      "so_gian_hang": 0,
      "gia_goc": null,
      "gia_cuoi": null,
      "ngay_cap_nhat": null,
      "hinh_anh": null
    },
    {
      "ma_nguyen_lieu": "NL1656",
      "ten_nguyen_lieu": "Bánh canh bột gạo",
      "don_vi": null,
      "ma_nhom_nguyen_lieu": "N12",
      "ten_nhom_nguyen_lieu": "gạo",
      "so_gian_hang": 0,
      "gia_goc": null,
      "gia_cuoi": null,
      "ngay_cap_nhat": null,
      "hinh_anh": null
    },
    {
      "ma_nguyen_lieu": "NL635",
      "ten_nguyen_lieu": "Bánh canh bột lọc",
      "don_vi": null,
      "ma_nhom_nguyen_lieu": "N02",
      "ten_nhom_nguyen_lieu": "khác",
      "so_gian_hang": 0,
      "gia_goc": null,
      "gia_cuoi": null,
      "ngay_cap_nhat": null,
      "hinh_anh": null
    },
    {
      "ma_nguyen_lieu": "NL1994",
      "ten_nguyen_lieu": "Bánh chưng vừa",
      "don_vi": null,
      "ma_nhom_nguyen_lieu": "N02",
      "ten_nhom_nguyen_lieu": "khác",
      "so_gian_hang": 0,
      "gia_goc": null,
      "gia_cuoi": null,
      "ngay_cap_nhat": null,
      "hinh_anh": null
    },
    {
      "ma_nguyen_lieu": "NL2751",
      "ten_nguyen_lieu": "Bánh cookie",
      "don_vi": null,
      "ma_nhom_nguyen_lieu": "N02",
      "ten_nhom_nguyen_lieu": "khác",
      "so_gian_hang": 0,
      "gia_goc": null,
      "gia_cuoi": null,
      "ngay_cap_nhat": null,
      "hinh_anh": null
    },
    {
      "ma_nguyen_lieu": "NL2624",
      "ten_nguyen_lieu": "Bánh cookies đen",
      "don_vi": null,
      "ma_nhom_nguyen_lieu": "N02",
      "ten_nhom_nguyen_lieu": "khác",
      "so_gian_hang": 0,
      "gia_goc": null,
      "gia_cuoi": null,
      "ngay_cap_nhat": null,
      "hinh_anh": null
    },
    {
      "ma_nguyen_lieu": "NL2623",
      "ten_nguyen_lieu": "Bánh cookies đỏ",
      "don_vi": null,
      "ma_nhom_nguyen_lieu": "N02",
      "ten_nhom_nguyen_lieu": "khác",
      "so_gian_hang": 0,
      "gia_goc": null,
      "gia_cuoi": null,
      "ngay_cap_nhat": null,
      "hinh_anh": null
    },
    {
      "ma_nguyen_lieu": "NL541",
      "ten_nguyen_lieu": "Bánh flan",
      "don_vi": null,
      "ma_nhom_nguyen_lieu": "N02",
      "ten_nhom_nguyen_lieu": "khác",
      "so_gian_hang": 0,
      "gia_goc": null,
      "gia_cuoi": null,
      "ngay_cap_nhat": null,
      "hinh_anh": null
    },
    {
      "ma_nguyen_lieu": "NL907",
      "ten_nguyen_lieu": "Bánh gạo",
      "don_vi": "gói",
      "ma_nhom_nguyen_lieu": "N12",
      "ten_nhom_nguyen_lieu": "gạo",
      "so_gian_hang": 2,
      "gia_goc": 35000,
      "gia_cuoi": 35000.0,
      "ngay_cap_nhat": "2026-03-07T16:12:31.036280",
      "hinh_anh": "http://207.180.233.84/uploads/ingredients/NL907.jpg"
    },
    {
      "ma_nguyen_lieu": "NL974",
      "ten_nguyen_lieu": "Bánh hỏi",
      "don_vi": "kg",
      "ma_nhom_nguyen_lieu": "N02",
      "ten_nhom_nguyen_lieu": "khác",
      "so_gian_hang": 2,
      "gia_goc": 20000,
      "gia_cuoi": 20000.0,
      "ngay_cap_nhat": "2026-03-07T15:21:31.009598",
      "hinh_anh": "http://207.180.233.84/uploads/ingredients/NL974.jpg"
    },
    {
      "ma_nguyen_lieu": "NL496",
      "ten_nguyen_lieu": "Bánh mì",
      "don_vi": null,
      "ma_nhom_nguyen_lieu": "N16",
      "ten_nhom_nguyen_lieu": "bánh mì",
      "so_gian_hang": 0,
      "gia_goc": null,
      "gia_cuoi": null,
      "ngay_cap_nhat": null,
      "hinh_anh": null
    },
    {
      "ma_nguyen_lieu": "NL1661",
      "ten_nguyen_lieu": "Bánh mì burger",
      "don_vi": null,
      "ma_nhom_nguyen_lieu": "N16",
      "ten_nhom_nguyen_lieu": "bánh mì",
      "so_gian_hang": 0,
      "gia_goc": null,
      "gia_cuoi": null,
      "ngay_cap_nhat": null,
      "hinh_anh": null
    },
    {
      "ma_nguyen_lieu": "NL2914",
      "ten_nguyen_lieu": "Bánh mì hamburger",
      "don_vi": null,
      "ma_nhom_nguyen_lieu": "N16",
      "ten_nhom_nguyen_lieu": "bánh mì",
      "so_gian_hang": 0,
      "gia_goc": null,
      "gia_cuoi": null,
      "ngay_cap_nhat": null,
      "hinh_anh": null
    },
    {
      "ma_nguyen_lieu": "NL1792",
      "ten_nguyen_lieu": "Bánh mì sandwich",
      "don_vi": "gói",
      "ma_nhom_nguyen_lieu": "N02",
      "ten_nhom_nguyen_lieu": "khác",
      "so_gian_hang": 2,
      "gia_goc": 18000,
      "gia_cuoi": 18000.0,
      "ngay_cap_nhat": "2025-11-08T17:04:00",
      "hinh_anh": "http://207.180.233.84/uploads/ingredients/NL1792.jpg"
    },
    {
      "ma_nguyen_lieu": "NL2947",
      "ten_nguyen_lieu": "Bánh mỳ burger",
      "don_vi": null,
      "ma_nhom_nguyen_lieu": "N02",
      "ten_nhom_nguyen_lieu": "khác",
      "so_gian_hang": 0,
      "gia_goc": null,
      "gia_cuoi": null,
      "ngay_cap_nhat": null,
      "hinh_anh": null
    },
    {
      "ma_nguyen_lieu": "NL2768",
      "ten_nguyen_lieu": "Bánh mỳ burger đen",
      "don_vi": null,
      "ma_nhom_nguyen_lieu": "N02",
      "ten_nhom_nguyen_lieu": "khác",
      "so_gian_hang": 0,
      "gia_goc": null,
      "gia_cuoi": null,
      "ngay_cap_nhat": null,
      "hinh_anh": null
    },
    {
      "ma_nguyen_lieu": "NL209",
      "ten_nguyen_lieu": "Bánh phồng tôm",
      "don_vi": null,
      "ma_nhom_nguyen_lieu": "N04",
      "ten_nhom_nguyen_lieu": "tôm",
      "so_gian_hang": 0,
      "gia_goc": null,
      "gia_cuoi": null,
      "ngay_cap_nhat": null,
      "hinh_anh": null
    },
    {
      "ma_nguyen_lieu": "NL1945",
      "ten_nguyen_lieu": "Bánh phồng tôm gạo lứt",
      "don_vi": null,
      "ma_nhom_nguyen_lieu": "N04",
      "ten_nhom_nguyen_lieu": "tôm",
      "so_gian_hang": 0,
      "gia_goc": null,
      "gia_cuoi": null,
      "ngay_cap_nhat": null,
      "hinh_anh": null
    },
    {
      "ma_nguyen_lieu": "NL798",
      "ten_nguyen_lieu": "Bánh phở",
      "don_vi": null,
      "ma_nhom_nguyen_lieu": "N10",
      "ten_nhom_nguyen_lieu": "phở/bún/hủ tiếu/miến",
      "so_gian_hang": 0,
      "gia_goc": null,
      "gia_cuoi": null,
      "ngay_cap_nhat": null,
      "hinh_anh": null
    },
    {
      "ma_nguyen_lieu": "NL2289",
      "ten_nguyen_lieu": "Bánh phở còn nguyên miếng",
      "don_vi": null,
      "ma_nhom_nguyen_lieu": "N10",
      "ten_nhom_nguyen_lieu": "phở/bún/hủ tiếu/miến",
      "so_gian_hang": 0,
      "gia_goc": null,
      "gia_cuoi": null,
      "ngay_cap_nhat": null,
      "hinh_anh": null
    },
    {
      "ma_nguyen_lieu": "NL2792",
      "ten_nguyen_lieu": "Bánh phở khô",
      "don_vi": null,
      "ma_nhom_nguyen_lieu": "N10",
      "ten_nhom_nguyen_lieu": "phở/bún/hủ tiếu/miến",
      "so_gian_hang": 0,
      "gia_goc": null,
      "gia_cuoi": null,
      "ngay_cap_nhat": null,
      "hinh_anh": null
    }
  ],
  "meta": {
    "page": 1,
    "limit": 50,
    "total": 1385,
    "hasNext": true
  }
}