{
  "data": [
    {
      "ma_nguyen_lieu": "NL1",
      "ten_nguyen_lieu": "Phi lê cá ngừ",
      "hinh_anh": "https://example.com/item.jpg",
      "so_luong_ban": 95.0,
      "gia_goc": 16000,
      "gia_cuoi": 16000.0,
      "don_vi_ban": "kg",
      "phan_tram_giam_gia": null,
      "ngay_cap_nhat": "2026-03-15T04:45:44.474674"
    },
    {
      "ma_nguyen_lieu": "NL1831",
      "ten_nguyen_lieu": "Lá cẩm",
      "hinh_anh": "http://207.180.233.84/uploads/ingredients/NL1831.jpg",
      "so_luong_ban": 17.0,
      "gia_goc": 22000,
      "gia_cuoi": 22000.0,
      "don_vi_ban": "bó",
      "phan_tram_giam_gia": 0.0,
      "ngay_cap_nhat": "2026-03-07T16:19:16.224015"
    },
    {
      "ma_nguyen_lieu": "NL1679",
      "ten_nguyen_lieu": "Nấm nút",
      "hinh_anh": "http://207.180.233.84/uploads/ingredients/NL1679.jpg",
      "so_luong_ban": 18.0,
      "gia_goc": 42000,
      "gia_cuoi": 42000.0,
      "don_vi_ban": "kg",
      "phan_tram_giam_gia": 0.0,
      "ngay_cap_nhat": "2026-03-07T16:19:16.224015"
    },
    {
      "ma_nguyen_lieu": "NL1702",
      "ten_nguyen_lieu": "Lê Hàn quốc",
      "hinh_anh": "http://207.180.233.84/uploads/ingredients/NL1702.jpg",
      "so_luong_ban": 18.0,
      "gia_goc": 78000,
      "gia_cuoi": 78000.0,
      "don_vi_ban": "kg",
      "phan_tram_giam_gia": 0.0,
      "ngay_cap_nhat": "2026-03-07T16:19:16.224015"
    },
    {
      "ma_nguyen_lieu": "NL1818",
      "ten_nguyen_lieu": "Hoa sen",
      "hinh_anh": "http://207.180.233.84/uploads/ingredients/NL1818.jpg",
      "so_luong_ban": 12.0,
      "gia_goc": 30000,
      "gia_cuoi": 30000.0,
      "don_vi_ban": "bông",
      "phan_tram_giam_gia": 0.0,
      "ngay_cap_nhat": "2026-03-07T16:19:16.224015"
    }
  ],
  "meta": {
    "page": 1,
    "limit": 5,
    "total": 54,
    "hasNext": true
  }
}