{
  "success": true,
  "data": [
    {
      "order_id": "4caa527e-d",
      "order_status": "chua_xac_nhan",
      "delivery_time": "2026-03-19 01:48:21.959007",
      "delivery_address": "N/A",
      "nguoi_mua": "Hieunguoimua Spra",
      "nguyen_lieu": [
        {
          "ingredient_id": "NL4",
          "ingredient_name": "Củ hành tây",
          "quantity": 1.0,
          "price": 4000.0
        }
      ]
    },
    {
      "order_id": "6f4fd626-7",
      "order_status": "chua_xac_nhan",
      "delivery_time": "2026-03-17 07:19:35.830886",
      "delivery_address": "N/A",
      "nguoi_mua": "Hieunguoimua Spra",
      "nguyen_lieu": [
        {
          "ingredient_id": "NL2729",
          "ingredient_name": "Bạch tuộc",
          "quantity": 16.0,
          "price": 100000.0
        }
      ]
    },
    {
      "order_id": "267b6b0f-e",
      "order_status": "chua_xac_nhan",
      "delivery_time": "2026-03-05 04:20:01.906380",
      "delivery_address": "{\"name\": \"Nguy\\u1ec5n V\\u0103n Hieu\", \"phone\": \"0912345678\", \"address\": \"123 Nguy\\u1ec5n V\\u0103n Linh, \\u0110\\u00e0 N\\u1eb5ng\"}",
      "nguoi_mua": "Hieunguoimua Spra",
      "nguyen_lieu": [
        {
          "ingredient_id": "NL55",
          "ingredient_name": "Cà rốt",
          "quantity": 2.0,
          "price": 2700.0
        }
      ]
    },
    {
      "order_id": "TTRVITBS_1",
      "order_status": "da_xac_nhan",
      "delivery_time": "2025-12-15 06:09:00",
      "delivery_address": "{\"name\":\"Nguyễn Văn Hieu\",\"phone\":\"0912345678\",\"address\":\"123 Nguyễn Văn Linh, Đà Nẵng\"}",
      "nguoi_mua": "Hieunguoimua Spra",
      "nguyen_lieu": [
        {
          "ingredient_id": "NL1",
          "ingredient_name": "Phi lê cá ngừ",
          "quantity": 2.0,
          "price": 9000.0
        }
      ]
    },
    {
      "order_id": "DHMJ6OP7I6",
      "order_status": "da_xac_nhan",
      "delivery_time": "2025-12-15 04:59:00",
      "delivery_address": "{\"name\":\"Nguyễn Văn Hieu\",\"phone\":\"0912345678\",\"address\":\"123 Nguyễn Văn Linh, Đà Nẵng\"}",
      "nguoi_mua": "Hieunguoimua Spra",
      "nguyen_lieu": [
        {
          "ingredient_id": "NL1",
          "ingredient_name": "Phi lê cá ngừ",
          "quantity": 2.0,
          "price": 9000.0
        }
      ]
    },
    {
      "order_id": "DHMJ5GL6Y5",
      "order_status": "da_xac_nhan",
      "delivery_time": "2025-12-14 08:24:00",
      "delivery_address": "{\"name\":\"Nguyễn Văn Hieu\",\"phone\":\"0912345678\",\"address\":\"123 Nguyễn Văn Linh, Đà Nẵng\"}",
      "nguoi_mua": "Hieunguoimua Spra",
      "nguyen_lieu": [
        {
          "ingredient_id": "NL2729",
          "ingredient_name": "Bạch tuộc",
          "quantity": 1.0,
          "price": 100000.0
        }
      ]
    },
    {
      "order_id": "DHMJ5GLS7T",
      "order_status": "da_xac_nhan",
      "delivery_time": "2025-12-14 08:24:00",
      "delivery_address": "{\"name\":\"Nguyễn Văn Hieu\",\"phone\":\"0912345678\",\"address\":\"123 Nguyễn Văn Linh, Đà Nẵng\"}",
      "nguoi_mua": "Hieunguoimua Spra",
      "nguyen_lieu": [
        {
          "ingredient_id": "NL2729",
          "ingredient_name": "Bạch tuộc",
          "quantity": 3.0,
          "price": 100000.0
        }
      ]
    },
    {
      "order_id": "DHMIZC5X8Z",
      "order_status": "da_xac_nhan",
      "delivery_time": "2025-12-10 01:34:00",
      "delivery_address": "{\"name\":\"nhi\",\"phone\":\"0912345678\",\"address\":\"123 Đa Mặn, Mỹ An, Ngũ Hành Sơn, Đà Nẵng, Việt Nam\"}",
      "nguoi_mua": "nhi",
      "nguyen_lieu": [
        {
          "ingredient_id": "NL371",
          "ingredient_name": "Bạch tuộc",
          "quantity": 1.0,
          "price": 15000.0
        }
      ]
    },
    {
      "order_id": "DHMIZC6GQS",
      "order_status": "da_xac_nhan",
      "delivery_time": "2025-12-10 01:34:00",
      "delivery_address": "{\"name\":\"nhi\",\"phone\":\"0912345678\",\"address\":\"123 Đa Mặn, Mỹ An, Ngũ Hành Sơn, Đà Nẵng, Việt Nam\"}",
      "nguoi_mua": "nhi",
      "nguyen_lieu": [
        {
          "ingredient_id": "NL371",
          "ingredient_name": "Bạch tuộc",
          "quantity": 1.0,
          "price": 15000.0
        }
      ]
    },
    {
      "order_id": "DHMIZC6TVZ",
      "order_status": "da_xac_nhan",
      "delivery_time": "2025-12-10 01:34:00",
      "delivery_address": "{\"name\":\"nhi\",\"phone\":\"0912345678\",\"address\":\"123 Đa Mặn, Mỹ An, Ngũ Hành Sơn, Đà Nẵng, Việt Nam\"}",
      "nguoi_mua": "nhi",
      "nguyen_lieu": [
        {
          "ingredient_id": "NL371",
          "ingredient_name": "Bạch tuộc",
          "quantity": 1.0,
          "price": 15000.0
        }
      ]
    }
  ],
  "meta": {
    "page": 1,
    "limit": 10,
    "total": 17,
    "total_pages": 2
  }
}